<svg width="16" height="17" viewBox="0 0 16 17" fill="none" xmlns="http://www.w3.org/2000/svg">
<path d="M12.7075 5.52026C12.6146 5.42734 12.5043 5.35362 12.383 5.30332C12.2616 5.25303 12.1315 5.22714 12.0001 5.22714C11.8688 5.22714 11.7387 5.25303 11.6173 5.30332C11.4959 5.35362 11.3857 5.42734 11.2928 5.52026L8.23548 8.57693C8.17297 8.63942 8.0882 8.67452 7.99981 8.67452C7.91142 8.67452 7.82665 8.63942 7.76415 8.57693L4.70748 5.52026C4.51997 5.33267 4.26562 5.22724 4.00038 5.22718C3.73514 5.22711 3.48074 5.33242 3.29315 5.51993C3.10555 5.70744 3.00012 5.96179 3.00006 6.22703C3 6.49227 3.1053 6.74667 3.29281 6.93426L6.35015 9.9916C6.56682 10.2083 6.82405 10.3802 7.10716 10.4975C7.39027 10.6147 7.69371 10.6751 8.00015 10.6751C8.30658 10.6751 8.61002 10.6147 8.89313 10.4975C9.17624 10.3802 9.43347 10.2083 9.65015 9.9916L12.7075 6.93426C12.8949 6.74673 13.0003 6.49243 13.0003 6.22726C13.0003 5.9621 12.8949 5.70779 12.7075 5.52026Z" fill="white"/>
</svg>
